package com.example.simple_rule

dialect "mvel"

rule "Get Continent of Country"
when
  $co: Country($countryName:country)
  $ct: ContinentMap($continent:continent, country==$countryName)
then
  System.out.println("Country "+$countryName+" is in "+$continent);
end

